{
	"id": "0f996bbb-f6b7-4abe-884c-07a1f81a872d",
	"name": "Production",
	"values": [
		{
			"key": "baseUrl",
			"value": "http://CarsApi-env.eba-vxywaw9t.us-east-1.elasticbeanstalk.com",
			"enabled": true
		}
	],
	"_postman_variable_scope": "environment",
	"_postman_exported_at": "2020-07-23T14:49:43.919Z",
	"_postman_exported_using": "Postman/7.27.1"
}